<svg width="255" height="163" viewBox="0 0 255 163" fill="none" xmlns="http://www.w3.org/2000/svg">
<g clip-path="url(#clip0)">
<path d="M64.4994 163C100.121 163 128.999 161.723 128.999 160.148C128.999 158.573 100.121 157.296 64.4994 157.296C28.8774 157.296 0 158.573 0 160.148C0 161.723 28.8774 163 64.4994 163Z" fill="#DAE5EF"/>
<path d="M77.8887 44.2273C77.8887 44.2273 78.1884 50.0309 81.5358 49.8307C81.5358 49.8307 83.0846 49.4805 83.4343 48.5299C83.784 47.5793 81.236 46.8289 81.236 46.8289L79.5873 45.428" fill="#A0A7B5"/>
<path d="M89.0801 149.392L89.7296 156.596C90.7787 156.746 93.0769 156.946 94.276 156.746C95.1253 156.596 95.8248 156.396 96.3744 156.146C97.2737 155.746 97.6733 155.395 97.6733 155.395L97.8232 149.092L90.6289 149.392H89.0801Z" fill="#FFBEAE"/>
<path d="M89.5293 149.492C92.0273 150.092 96.324 150.242 96.324 150.242L96.3739 156.146C97.2732 155.746 97.6729 155.395 97.6729 155.395L97.8228 149.092L90.6284 149.392L89.5293 149.492Z" fill="#FFB1A9"/>
<path d="M97.6232 155.396C97.6232 155.396 93.2766 156.996 89.5795 155.646C89.5795 155.646 81.8356 158.948 81.4359 159.648C81.0362 160.399 97.3734 160.048 97.873 159.948C98.3726 159.948 98.4226 156.846 97.6232 155.396Z" fill="#322C74"/>
<path d="M116.558 148.391L119.106 155.145C120.155 155.045 122.453 154.745 123.552 154.295C124.352 153.945 125.001 153.594 125.451 153.244C126.2 152.694 126.55 152.194 126.55 152.194L124.901 146.09L117.957 147.991L116.558 148.391Z" fill="#FFBEAE"/>
<path d="M117.008 148.391C119.606 148.441 123.802 147.641 123.802 147.641L125.501 153.294C126.251 152.744 126.6 152.244 126.6 152.244L124.952 146.14L118.007 148.041L117.008 148.391Z" fill="#FFB1A9"/>
<path d="M126.6 152.244C126.6 152.244 122.703 154.795 118.806 154.295C118.806 154.295 111.961 159.198 111.762 159.998C111.562 160.799 127.349 156.846 127.849 156.646C128.349 156.496 127.699 153.494 126.6 152.244Z" fill="#322C74"/>
<path d="M105.917 82.3005C105.817 82.9509 105.717 83.7514 105.567 84.6019C105.367 86.0028 105.067 87.6038 104.818 89.3548C104.418 91.8564 103.918 94.6581 103.469 97.4598C103.069 99.8113 102.669 102.163 102.32 104.364C102.02 105.965 101.77 107.516 101.52 108.917C100.821 112.969 100.371 115.821 100.371 115.821L97.8231 149.041C93.8762 150.192 89.1299 149.392 89.1299 149.392C89.1299 149.392 85.6826 120.824 85.6826 114.82C85.6826 110.468 86.6319 93.8576 87.1315 85.0522C87.1814 84.3017 87.2314 83.6013 87.2314 83.0009C87.3813 80.8496 87.4312 79.5488 87.4312 79.5488L104.768 82.1504L105.917 82.3005Z" fill="#322C74"/>
<path d="M101.371 91.3562C101.371 91.3562 98.1733 107.916 96.6745 116.171C95.2256 124.426 94.2764 149.342 94.2764 149.342" stroke="#1B1A56" stroke-width="0.4865" stroke-miterlimit="10" stroke-linecap="round"/>
<path opacity="0.3" d="M103.419 97.4599C102.719 101.562 102.02 105.665 101.47 108.917L100.671 94.408L100.421 90.5056C100.421 90.5056 101.37 92.1066 101.72 93.4074C102.02 94.2079 102.719 95.8089 103.419 97.4599Z" fill="#242366"/>
<path d="M124.951 146.14C121.554 148.341 116.558 148.441 116.558 148.441L106.016 122.025C104.667 118.673 103.718 115.121 103.268 111.519L102.319 104.364L100.421 89.8552L99.9209 86.203L105.566 84.602L117.757 81.1499L117.807 84.7021L118.406 114.821L124.951 146.14Z" fill="#322C74"/>
<path d="M111.862 83.8015C111.862 83.8015 111.263 102.063 112.861 113.87C114.46 125.677 121.554 147.29 121.554 147.29" stroke="#1B1A56" stroke-width="0.4865" stroke-miterlimit="10"/>
<path opacity="0.3" d="M117.807 84.7021C116.858 85.0523 115.159 85.7527 113.76 86.5032C112.461 87.2036 108.864 88.6545 104.767 89.405C103.318 89.6551 101.819 89.8552 100.371 89.8552C99.3714 89.8552 98.3222 89.8052 97.373 89.6551C92.277 88.9047 88.3301 86.1029 87.0811 85.0523C87.131 84.3018 87.181 83.6014 87.181 83.001C87.8804 83.001 88.6798 83.001 88.7797 83.001C88.9296 83.0511 97.0233 82.8009 97.2731 82.8009C97.373 82.8009 100.72 82.5007 104.717 82.1505L105.816 82.3006C105.716 82.951 105.617 83.7515 105.467 84.602L117.657 81.1499L117.807 84.7021Z" fill="#242366"/>
<path d="M90.9285 47.3291C90.9285 47.3291 89.03 47.7794 86.2821 48.2297C86.1323 48.2297 86.0323 48.2797 85.8824 48.2797C80.2868 49.1803 71.5937 50.1308 67.7467 47.7794C67.1471 47.4792 66.1979 47.079 65.4984 46.0783C65.4485 46.0283 65.3985 45.9783 65.3985 45.8782C65.1487 45.478 64.799 44.7775 64.5991 44.2772C62.4009 38.7238 63.2002 29.5682 63.5999 26.2662C63.6999 25.5658 63.55 24.9154 63.2002 24.315C62.251 22.664 61.2018 18.7616 61.7514 18.3613C62.3509 17.861 63.2002 20.1124 63.4001 20.8128C63.1503 19.9623 62.0511 16.21 62.6007 15.9599C63.2002 15.6597 64.5991 20.3626 64.6491 20.6127C64.5991 20.3626 63.1503 14.2088 63.9996 14.0587C64.849 13.9586 65.998 19.5621 66.098 20.1624C65.998 19.6121 65.1987 14.9592 66.048 15.1594C66.9473 15.3595 67.297 18.6615 67.5968 19.9123C67.5968 20.0124 67.8466 20.2625 67.9465 19.8122C68.0964 19.1618 68.2463 16.8604 68.9457 17.0105C69.2455 17.0605 69.3454 18.0111 69.4453 19.1118C69.5453 20.3626 69.5952 21.8635 69.2455 23.2143C69.1456 23.6646 68.9457 24.1149 68.646 24.4651C68.1464 25.0655 67.9465 25.8659 68.0964 26.6164C68.5461 29.8184 71.194 38.1235 71.7935 39.7244C73.0925 39.4243 77.7388 38.1235 81.1362 37.1729C84.6834 36.1723 89.3297 35.1216 89.3297 35.1216L90.9285 47.3291Z" fill="#F4A392"/>
<path d="M86.5314 47.0289C86.5314 47.0289 86.4815 47.5292 86.3316 48.2296C86.1817 48.2296 86.0818 48.2797 85.9319 48.2797C80.3363 49.1802 71.6431 50.1308 67.7961 47.7793C67.1966 47.4792 66.2473 47.0789 65.5479 46.0783C65.5479 46.0783 70.3941 49.5304 81.5353 47.5292C81.5353 47.5292 82.7344 45.628 81.0857 39.074C79.6868 33.7207 86.5314 47.0289 86.5314 47.0289Z" fill="#F29788"/>
<path d="M128.499 58.8861C127.05 60.8373 124.552 62.7885 123.253 63.6891C122.803 63.9893 122.504 64.1894 122.504 64.1894L117.258 59.7867L121.455 53.3828L122.853 51.2314C123.653 52.2321 124.802 53.783 125.851 55.2339C125.851 55.2339 125.851 55.2339 125.901 55.2839C127.3 57.1851 128.499 58.8861 128.499 58.8861Z" fill="#F4A392"/>
<path d="M119.157 81.3499C119.157 81.3499 118.707 81.6501 117.908 82.0503C114.71 83.9015 105.667 88.5043 97.9735 87.7038C88.381 86.7532 85.6831 83.251 85.6831 83.251L86.6324 49.5304L81.5364 49.8305C81.8361 49.6804 82.036 49.4803 82.2358 49.1301C82.8853 48.0294 83.0352 46.0282 82.7854 44.2271C81.986 38.3735 79.5879 37.473 79.5879 37.473C79.5879 37.473 86.5824 35.3717 89.1804 34.8714C92.8775 34.1709 110.164 37.8732 112.262 39.0739C112.412 39.174 112.562 39.3241 112.712 39.4742L115.11 58.0356C115.46 61.3876 116.309 66.2906 117.158 70.6933C118.108 76.3968 119.157 81.3499 119.157 81.3499Z" fill="#C7CDDB"/>
<path d="M117.057 70.7435C114.809 63.6391 113.16 56.4347 113.061 56.1345L115.009 58.0857C115.409 61.3877 116.258 66.2907 117.057 70.7435Z" fill="#BAC1D1"/>
<path d="M124.352 51.0315C121.704 48.0797 114.46 41.2255 112.611 39.5244L115.009 58.0858L117.408 59.8869C124.352 57.0852 124.352 51.0315 124.352 51.0315Z" fill="#C7CDDB"/>
<path d="M94.4759 20.2124C94.4759 20.2124 93.9264 20.7627 93.8264 22.1636C93.6766 23.5645 94.8756 24.5651 94.8756 24.5651L96.3245 21.6133" fill="#FFCF9F"/>
<path d="M105.217 38.3736C106.166 40.2248 104.268 42.276 102.519 42.7263C100.671 43.2266 96.1242 43.6769 94.1757 41.8758C94.0258 41.7257 93.9259 41.6256 93.776 41.4755C92.9267 40.2748 92.9766 38.874 93.4763 37.7733C93.8759 36.8727 94.8752 36.2223 95.8744 35.9722L95.9243 35.4218C94.8252 35.0216 93.776 34.3212 93.0766 33.0704C92.3272 31.7696 92.3272 30.5188 92.527 29.4682C92.6269 29.0679 92.7268 28.7177 92.8767 28.3675C93.0766 27.9172 93.2764 27.467 93.4263 27.0167C93.7261 26.3162 93.9759 25.6658 94.1257 24.9154C95.5746 19.5121 100.621 17.8611 104.118 20.3126C106.416 21.8635 107.215 26.3663 104.967 30.4688C104.817 30.7189 104.667 30.9691 104.518 31.2193C103.968 32.3199 103.019 34.4212 103.418 36.0722C103.618 36.5725 103.918 37.0228 104.368 37.373C104.368 37.373 104.418 37.373 104.418 37.4231C104.817 37.7232 105.017 38.0735 105.217 38.3736Z" fill="#F4A392"/>
<path d="M94.3757 17.1606C94.3757 17.1606 93.3765 21.063 95.8245 22.8641C97.2734 23.9148 102.369 23.9648 102.919 24.7653C103.469 25.5658 102.12 28.5176 102.419 28.7678C102.719 28.9679 103.868 26.3163 104.768 27.2168C105.467 27.9172 103.718 33.2705 103.718 33.2705C103.718 33.2705 104.967 32.47 106.516 29.6183C108.015 26.8166 110.863 21.8635 106.916 20.6628C105.117 15.7098 95.8745 17.9111 94.3757 17.1606Z" fill="#FFCF9F"/>
<path d="M95.8743 35.3719C95.8743 35.3719 98.4723 35.7722 100.071 34.9216C100.071 34.9216 98.0726 37.0229 95.7744 37.173L95.8743 35.3719Z" fill="#F29788"/>
<path d="M93.7762 29.9685C93.7762 29.9685 95.4249 31.1692 97.4233 31.5195C97.4233 31.5195 96.7239 33.5207 94.7754 32.7202C92.777 31.9197 93.7762 29.9685 93.7762 29.9685Z" fill="white"/>
<path d="M99.2411 26.6576C98.9541 26.5587 98.554 26.9656 98.3474 27.5666C98.1408 28.1675 98.206 28.7349 98.493 28.8338C98.78 28.9327 99.1802 28.5258 99.3867 27.9248C99.5933 27.3239 99.5281 26.7565 99.2411 26.6576Z" fill="white"/>
<path d="M99.0188 27.1002C98.8101 27.0283 98.5171 27.33 98.3644 27.7741C98.2117 28.2183 98.2571 28.6366 98.4658 28.7086C98.6746 28.7805 98.9675 28.4788 99.1202 28.0347C99.2729 27.5906 99.2275 27.1722 99.0188 27.1002Z" fill="#A54B42"/>
<path d="M99.5716 25.3657C100.021 25.4658 100.721 25.866 100.921 26.5164C101.12 27.1668 99.1719 25.816 99.072 25.6159C98.9721 25.3657 99.2219 25.2657 99.5716 25.3657Z" fill="#FFCF9F"/>
<path d="M95.5683 25.0414C95.2813 24.9424 94.8812 25.3493 94.6746 25.9502C94.4681 26.5511 94.5332 27.1184 94.8202 27.2173C95.1072 27.3163 95.5073 26.9094 95.7139 26.3085C95.9204 25.7076 95.8553 25.1403 95.5683 25.0414Z" fill="white"/>
<path d="M95.2746 25.5092C95.0659 25.4372 94.7729 25.7389 94.6203 26.1831C94.4676 26.6272 94.513 27.0456 94.7217 27.1175C94.9304 27.1895 95.2234 26.8878 95.3761 26.4436C95.5287 25.9995 95.4833 25.5811 95.2746 25.5092Z" fill="#A54B42"/>
<path d="M95.1742 23.7146C95.6239 23.7146 96.4232 23.8647 96.773 24.4651C97.1227 25.0154 94.8745 24.2149 94.7745 24.0648C94.6746 23.9147 94.8245 23.7146 95.1742 23.7146Z" fill="#FFCF9F"/>
<path d="M99.0188 31.7474C99.6423 31.9706 100.351 31.5821 100.602 30.8796C100.853 30.1771 100.55 29.4267 99.9269 29.2035C99.3033 28.9803 98.5946 29.3688 98.3438 30.0713C98.093 30.7737 98.3952 31.5242 99.0188 31.7474Z" fill="#F79484"/>
<path d="M94.2253 28.7179C93.9755 29.4183 93.2761 29.7685 92.6266 29.5684C92.5766 29.5684 92.4767 29.5184 92.4268 29.4684C92.5267 29.0681 92.6266 28.7179 92.7765 28.3677C92.9763 27.9174 93.1762 27.4671 93.326 27.0168C93.376 27.0168 93.426 27.0168 93.4759 27.0669C94.1754 27.267 94.4751 28.0175 94.2253 28.7179Z" fill="#F79484"/>
<path d="M95.4751 28.4175C95.4751 28.4175 95.0754 28.7177 94.9755 29.0178C94.9255 29.318 95.2752 29.7183 95.6749 29.8684C95.6749 29.8684 95.575 29.8183 95.4751 29.7183C95.1753 29.4181 95.1254 28.9678 95.3752 28.6176C95.4251 28.5175 95.4251 28.4675 95.4751 28.4175Z" fill="#E58373"/>
<path d="M104.468 27.0168C104.468 27.0168 106.566 26.9167 106.117 29.1181C105.717 31.1193 104.118 31.7697 103.169 30.9692C102.22 30.1687 103.519 27.0168 104.468 27.0168Z" fill="#F4A392"/>
<path d="M104.318 28.4176C104.168 28.7178 104.468 29.168 104.268 29.4182C104.068 29.6684 103.818 29.5683 103.718 29.8184C103.619 30.0686 104.018 30.2687 104.618 29.9185C105.067 29.6684 105.167 29.068 105.117 28.6677C105.067 28.1674 104.518 27.9673 104.318 28.4176Z" fill="#E58373"/>
<path d="M130.048 66.791C129.199 68.8422 127 71.3438 124.752 73.4951C122.504 75.6964 120.206 77.5976 119.157 78.3981C118.207 79.1486 118.407 79.899 118.107 80.6995C117.558 82.0003 116.559 83.101 116.009 83.0009C115.459 82.9009 115.409 82.5006 115.409 82.5006C115.409 82.5006 114.91 82.6007 114.66 82.3505C114.41 82.1004 114.46 81.9503 114.46 81.9503C114.46 81.9503 114.061 81.9503 113.811 81.7001C113.461 81.3999 113.611 80.9997 113.611 80.9997C113.561 80.9997 112.961 80.9997 112.762 80.5494C112.562 80.0991 113.011 79.4988 113.061 79.4487C112.712 79.6489 112.062 79.6989 112.012 79.3487C111.962 78.9985 113.261 77.3975 114.16 77.1974C114.76 77.0973 115.16 76.8972 115.659 76.4969C115.859 76.3468 116.109 76.0467 116.259 75.7965C116.459 75.5463 116.559 75.3462 116.559 75.3462C117.358 73.8453 118.457 71.7941 119.506 69.8429C121.105 66.841 122.604 64.1894 122.604 64.1894L122.954 63.2888L125.951 55.2339C125.951 55.2339 125.951 55.2339 126.001 55.2839C126.501 55.9343 131.847 62.2382 130.048 66.791Z" fill="#F4A392"/>
<path d="M113.96 78.9986C113.561 79.2488 112.911 79.549 112.911 79.549L112.961 79.4489C112.961 79.4489 113.261 79.2988 113.81 78.8986C114.11 78.6984 114.56 78.1981 114.66 78.3482C114.76 78.4483 114.31 78.7485 113.96 78.9986Z" fill="#F29788"/>
<path d="M123.253 63.6891L123.603 64.0393C123.603 64.0393 120.805 67.6915 119.356 69.8428C120.955 66.841 122.453 64.1894 122.453 64.1894L117.357 59.8867C121.704 58.1356 123.303 55.1338 123.952 53.1326C123.852 53.5328 122.603 58.1857 119.706 60.287L122.803 63.2888L123.253 63.6891Z" fill="#F29788"/>
<path d="M102.37 42.8262C100.371 43.3766 96.0744 43.6267 94.126 41.8256C94.126 41.8256 96.674 43.1765 100.571 42.6261C104.468 42.0758 105.217 39.8244 105.167 38.3235C106.216 40.3247 104.118 42.376 102.37 42.8262Z" fill="#F29788"/>
<path d="M86.6821 48.5798L86.6321 49.5304L81.5361 49.8306C81.8359 49.6805 82.0357 49.4804 82.2356 49.1302C83.0849 49.0301 85.583 48.83 86.6821 48.5798Z" fill="#BAC1D1"/>
<path d="M101.72 50.7312H107.815C108.165 50.7312 108.465 50.9814 108.465 51.3316C108.515 52.4823 108.615 54.9838 108.515 56.1845C108.315 57.7855 106.466 59.6367 105.167 59.9869C103.868 60.3371 101.72 57.0851 101.32 55.9344C101.021 55.0338 101.171 52.2822 101.221 51.1815C101.221 50.9313 101.47 50.7312 101.72 50.7312Z" fill="#AAB2C1"/>
<path d="M37.3707 149.392L36.3715 156.596C35.3223 156.746 33.0241 156.946 31.8251 156.746C30.9757 156.596 30.2763 156.396 29.7267 156.146C28.8274 155.746 28.4277 155.395 28.4277 155.395L28.6775 149.092L35.8719 149.392H37.3707Z" fill="#FFBEAE"/>
<path d="M36.9709 149.492C34.4728 150.092 30.1762 150.242 30.1762 150.242L29.7765 156.146C28.8772 155.746 28.4775 155.395 28.4775 155.395L28.7273 149.092L35.9217 149.392L36.9709 149.492Z" fill="#FFB1A9"/>
<path d="M42.2667 81.0999C42.2667 81.0999 43.3658 83.1011 39.1691 84.3018C34.9724 85.5026 34.4229 78.3982 34.4229 78.3982H38.4197L41.6672 79.7991L42.2667 81.0999Z" fill="#4185C9"/>
<path d="M15.8378 149.892L14.4389 155.796C12.99 155.996 10.8917 156.446 9.39284 156.246C8.44359 156.146 7.69418 155.846 7.19457 155.596C6.74492 155.395 6.49512 155.195 6.49512 155.195L7.04469 149.042L13.3397 149.642L15.8378 149.892Z" fill="#FFBEAE"/>
<path d="M14.9385 149.992C12.1907 150.392 7.84406 150.042 7.84406 150.042L7.19457 155.596C6.74492 155.395 6.49512 155.195 6.49512 155.195L7.04469 149.042L13.3397 149.642L14.9385 149.992Z" fill="#FFB1A9"/>
<path d="M6.49481 155.195C6.49481 155.195 10.8414 156.796 14.5385 155.445C14.5385 155.445 22.2824 158.747 22.6821 159.448C23.0818 160.198 6.74461 159.848 6.245 159.748C5.7454 159.748 5.69544 156.696 6.49481 155.195Z" fill="#173751"/>
<path d="M28.1276 81.6001C28.1276 81.6001 28.0276 82.8509 27.7778 84.9021C27.4281 88.3542 26.8286 94.0077 26.1791 99.9614C25.9293 102.313 25.6295 104.714 25.3298 107.016C25.1799 108.367 24.98 109.717 24.8302 111.018C24.3805 114.62 23.8809 117.822 23.4812 119.974C21.6826 129.379 15.7872 149.892 15.7872 149.892C11.1409 150.492 6.99414 149.041 6.99414 149.041C6.99414 149.041 7.74355 136.434 9.89187 119.874C9.69202 108.667 8.74277 91.306 8.34308 84.5019C8.29312 83.4512 8.24316 82.6507 8.1932 82.1504C8.1932 81.8002 8.14324 81.6001 8.14324 81.6001H28.1276Z" fill="#7E96BA"/>
<path d="M22.6828 91.8564C22.6828 91.8564 21.6336 110.618 19.9349 119.573C18.2362 128.479 13.8896 149.442 13.8896 149.442" stroke="#657996" stroke-width="0.4865" stroke-miterlimit="10" stroke-linecap="round" stroke-linejoin="round"/>
<path opacity="0.2" d="M26.1797 99.9612C25.78 103.714 25.2804 107.566 24.8308 111.018C23.0322 103.513 20.3343 90.3553 20.2344 89.905L26.1797 99.9612Z" fill="#6883AA"/>
<path d="M41.8665 116.722C41.167 132.381 37.37 149.442 37.37 149.442C33.3232 150.392 28.6768 149.091 28.6768 149.091C28.6768 149.091 28.8767 124.526 28.477 118.623C27.6776 115.421 26.5285 111.268 25.3294 107.066C23.1312 99.3109 20.8829 91.5561 20.4333 90.5054C19.8337 89.0546 19.3841 87.5536 19.0344 86.2028C18.5847 84.4517 18.3349 82.8007 18.185 81.65C18.185 81.4499 18.1351 81.2998 18.1351 81.0997C18.0352 80.1991 18.0352 79.6988 18.0352 79.6988L39.918 74.5457C40.0179 75.4462 40.1678 76.747 40.2677 78.4481C40.3676 79.6488 40.4676 80.9996 40.5175 82.4505C41.167 92.9069 41.7665 109.717 41.8665 116.722Z" fill="#7E96BA"/>
<path opacity="0.2" d="M40.518 82.4505C37.97 82.6006 32.924 83.9014 27.778 84.902C24.7304 85.5024 21.6328 86.0027 19.0349 86.1528C18.6851 86.1528 18.3354 86.2028 17.9857 86.2028C12.54 86.3028 9.5423 85.1521 8.34324 84.5017C8.29328 83.4511 8.24332 82.6506 8.19336 82.1503L8.99273 81.6L10.4416 80.6494L18.1356 81.0997L19.9342 81.1997L40.2682 78.498C40.3681 79.5987 40.4181 80.9496 40.518 82.4505Z" fill="#6883AA"/>
<path d="M39.8687 81.1497C39.8687 81.1497 40.2184 90.3053 36.2715 91.8562" stroke="#657996" stroke-width="0.4865" stroke-miterlimit="10" stroke-linecap="round" stroke-linejoin="round"/>
<path d="M35.1729 80.5994C35.1729 80.5994 37.571 104.114 38.0206 115.821C38.4203 127.528 35.5226 149.041 35.5226 149.041" stroke="#657996" stroke-width="0.4865" stroke-miterlimit="10" stroke-linecap="round" stroke-linejoin="round"/>
<path d="M70.7442 43.3764C70.6443 43.9268 70.5443 44.4271 70.4444 44.8773C68.9956 49.8304 57.3547 48.6797 50.4601 47.529C47.5124 47.0287 45.4141 46.5784 45.4141 46.5784L47.1627 34.1708C47.1627 34.1708 50.6599 35.2214 54.1072 36.4222C57.4047 37.5228 61.6513 38.7736 62.9003 39.0738C63.1002 37.3727 63.5998 30.2183 63.3 26.9664C63.2501 26.2159 62.8504 25.4654 62.2509 25.0152C61.9011 24.765 61.6014 24.3648 61.3516 23.9145C60.7021 22.6637 60.4023 21.2128 60.2025 19.9621C60.0526 18.8614 59.9027 17.9608 60.2025 17.8107C60.852 17.5106 61.5514 19.7119 61.8012 20.3123C62.001 20.7125 62.2009 20.4123 62.2009 20.3123C62.2009 19.0115 61.8012 15.7094 62.6006 15.3092C63.35 14.959 63.6498 19.6118 63.6997 20.1622C63.6997 19.5618 63.4499 13.8083 64.2992 13.7582C65.1985 13.6582 65.1985 20.0121 65.1985 20.2622C65.1985 20.0121 65.4483 15.1091 66.0978 15.2592C66.6974 15.4093 66.4975 19.4617 66.4476 20.2122C66.4975 19.6118 66.7973 17.0102 67.4967 17.3605C68.0963 17.6606 67.9963 21.6631 67.4468 23.5142C67.2469 24.1646 67.2469 24.8651 67.4967 25.5155C68.6958 28.7675 71.5935 37.4728 70.7442 43.3764Z" fill="#FFBEAE"/>
<path d="M70.7441 43.3764C70.6941 43.8767 70.5442 44.3771 70.4443 44.8774C68.9954 49.8304 57.3546 48.6797 50.46 47.529C50.8097 45.3777 52.2086 40.6748 52.4084 40.0244C52.6083 39.2739 54.3569 36.5723 54.3569 36.5723L57.6543 37.4728C57.6543 37.4728 58.7535 41.075 56.9549 46.6284C56.9549 46.6284 62.6504 47.529 66.0977 47.0287C69.2452 46.5784 70.4943 44.4271 70.7441 43.3764Z" fill="#FFB1A9"/>
<path d="M15.8379 54.3834L10.4921 71.694C10.4921 71.694 9.99244 70.8935 9.39291 69.6928C8.19386 67.3913 6.44523 63.7391 6.49519 61.7879C6.59511 59.5866 9.09315 55.6341 10.4421 53.6829C10.9417 52.9825 11.2415 52.5322 11.2415 52.5322L11.4413 52.6323L15.8379 54.3834Z" fill="#FFBEAE"/>
<path d="M15.8375 54.3832L10.4917 71.6938C10.4917 71.6938 9.99211 70.8933 9.39258 69.6926C10.5916 63.1886 12.64 56.2343 12.64 56.2343C11.6408 55.5339 10.3918 53.6827 10.3918 53.6827L11.391 52.6321L15.8375 54.3832Z" fill="#FFB1A9"/>
<path d="M21.533 39.374L20.234 45.2776C20.234 45.2776 18.7851 57.5852 15.7875 56.6346C15.6376 56.5846 15.4378 56.5346 15.2879 56.4345C14.4385 56.1343 13.5892 55.684 12.8898 55.2838C11.2411 54.3332 10.042 53.3826 10.042 53.3826C12.59 49.7304 21.2832 39.7242 21.533 39.374Z" fill="#5599E8"/>
<path d="M15.2878 56.4845C14.4384 56.1844 13.5891 55.7341 12.8896 55.3338C13.8389 53.5327 16.7366 48.1294 19.2846 44.9775C21.4829 42.1758 17.586 51.3814 15.2878 56.4845Z" fill="#498FC9"/>
<path d="M48.1126 34.1208C46.9135 33.7206 45.7144 33.5204 44.4654 33.4704C40.1688 33.2703 29.8769 33.3203 23.2321 37.8731C14.6388 43.7267 7.09473 83.251 7.09473 83.251C7.09473 83.251 13.1899 86.2528 22.8324 84.4517C32.4748 82.6506 39.869 79.3486 42.417 81.6C42.417 81.6 42.0173 76.2467 42.7168 70.243C43.666 61.8878 45.6645 51.2313 46.0142 48.0794C46.0142 48.0794 50.8104 49.2301 54.5075 49.2301C54.5075 49.2301 58.6043 43.2264 57.6051 37.5229C54.0079 36.072 50.2109 34.7712 48.1126 34.1208Z" fill="#5599E8"/>
<path d="M43.8658 25.6157C43.8158 25.8659 43.616 26.0159 43.3162 26.066C43.1663 27.5169 42.8166 28.8177 42.367 29.7182C42.1671 30.1685 41.8673 30.5187 41.6175 30.7689C40.0688 32.0196 38.3701 32.1697 36.9212 31.8695C34.623 31.4193 32.8244 29.9183 32.8244 29.9183C30.0266 27.9671 27.9283 20.8628 30.4763 16.9604C33.0243 13.058 38.3701 13.5083 41.4177 16.7102C42.8666 18.2612 43.4661 21.1129 43.4661 23.9147C43.616 24.415 43.9157 25.2155 43.8658 25.6157Z" fill="#FFBEAE"/>
<path d="M42.3666 29.7683C42.1668 30.2186 41.867 30.5688 41.6172 30.819C40.0684 32.0697 38.3698 32.2198 36.9209 31.9196L37.7203 31.0191C37.6703 31.0191 40.2683 31.5694 42.3666 29.7683Z" fill="#FFB1A9"/>
<path d="M30.2759 25.9658C30.2759 25.9658 31.7747 31.169 29.1768 35.0714C30.4258 35.7718 33.0237 35.7218 35.272 35.1214C37.2704 34.5711 38.9691 33.4704 38.9691 33.4704C38.9691 33.4704 37.82 31.119 38.4695 29.0177" fill="#FFBEAE"/>
<path d="M28.4779 155.395C28.4779 155.395 32.8245 156.996 36.5216 155.645C36.5216 155.645 44.2655 158.947 44.6652 159.648C45.0649 160.398 28.7277 160.048 28.2281 159.948C27.6785 159.948 27.6785 156.846 28.4779 155.395Z" fill="#173751"/>
<path d="M43.4157 12.9079C40.9676 11.1068 33.1737 11.407 31.575 15.4094C31.575 15.4094 31.525 15.4094 31.4751 15.4094C30.276 14.5089 28.6273 14.9091 28.6273 14.9091C29.2268 15.0092 29.7264 15.2093 30.1261 15.4594C29.027 15.6596 27.6281 16.2599 27.3283 18.2111C26.9786 20.7127 29.1769 25.0153 30.1761 27.5669C30.326 27.9671 30.6257 28.2173 31.0254 28.3173C31.8248 28.5675 32.9239 28.6675 34.8724 28.0171C35.2721 27.8671 35.5719 27.4668 35.5719 27.0165C35.5219 24.2648 35.5219 20.9128 37.1706 21.8634C37.6702 22.1135 38.0699 23.4644 38.7694 23.5144C39.8185 23.5644 39.7186 21.5632 39.9185 20.3124C40.518 16.7102 41.9169 19.3618 43.5156 18.011C45.0644 16.6602 45.3642 14.3087 43.4157 12.9079Z" fill="#20466B"/>
<path d="M31.4251 15.8098C31.4251 15.8098 30.7257 14.559 31.4251 12.3577C31.4251 12.3577 31.575 14.2588 32.3244 15.2094" fill="#20466B"/>
<path d="M37.2711 21.9635C37.2711 21.9635 36.122 20.5126 34.823 22.0136C34.1235 22.8641 34.4233 25.0654 35.3226 25.4657C36.2219 25.8659 37.0712 25.4657 37.4709 24.8153" fill="#FFBEAE"/>
<path d="M41.2665 27.4096C42.0092 27.3507 42.5459 26.4767 42.4653 25.4576C42.3847 24.4384 41.7173 23.6599 40.9746 23.7188C40.232 23.7777 39.6952 24.6517 39.7758 25.6708C39.8564 26.69 40.5238 27.4685 41.2665 27.4096Z" fill="#FFA3A5"/>
<path d="M45.6641 33.7205C45.6641 33.7205 41.8171 33.3703 39.9686 37.0726C38.17 40.7749 40.3183 46.3283 45.5142 47.9292" stroke="#4086CC" stroke-width="0.4865" stroke-miterlimit="10" stroke-linecap="round" stroke-linejoin="round"/>
<path d="M41.2172 45.0276C41.2172 45.0276 33.9728 63.2888 34.8222 79.5488" stroke="#4086CC" stroke-width="0.4865" stroke-miterlimit="10" stroke-linecap="round" stroke-linejoin="round"/>
<path d="M43.0162 27.4668C43.0162 27.4668 42.4666 28.8176 40.9678 27.767C40.9678 27.767 42.1668 28.2173 43.0162 27.4668Z" fill="#06131E"/>
<path d="M42.3252 22.9041C42.5995 22.8745 42.7715 22.3828 42.7094 21.8059C42.6473 21.229 42.3746 20.7854 42.1002 20.815C41.8259 20.8446 41.6539 21.3363 41.716 21.9132C41.7781 22.4901 42.0508 22.9337 42.3252 22.9041Z" fill="white"/>
<path d="M42.3998 22.8581C42.6193 22.8344 42.7588 22.4589 42.7115 22.0194C42.6642 21.5798 42.4479 21.2427 42.2284 21.2664C42.009 21.2901 41.8694 21.6656 41.9167 22.1052C41.9641 22.5447 42.1803 22.8818 42.3998 22.8581Z" fill="#20466B"/>
<path d="M41.5677 19.5619C41.2179 19.712 40.6184 20.2623 40.6184 20.8627C40.5684 21.463 42.0673 19.8621 42.0673 19.6619C42.0673 19.4618 41.8175 19.4118 41.5677 19.5619Z" fill="#20466B"/>
<path d="M36.5214 23.0641C36.5714 23.3643 36.2217 23.7145 36.3715 23.9646C36.5214 24.2148 36.7213 24.2148 36.7712 24.4149C36.8212 24.615 36.4215 24.7651 35.9219 24.3149C35.5722 23.9646 35.6221 23.4643 35.722 23.0641C35.8719 22.6638 36.4215 22.5638 36.5214 23.0641Z" fill="#FF9692"/>
<path d="M194.147 163C227.755 163 254.999 161.723 254.999 160.148C254.999 158.573 227.755 157.296 194.147 157.296C160.539 157.296 133.295 158.573 133.295 160.148C133.295 161.723 160.539 163 194.147 163Z" fill="#DAE5EF"/>
<path d="M148.633 56.5845C148.633 56.5845 146.135 63.6888 145.735 65.1898C145.336 66.6406 150.632 73.4948 150.632 73.4948L152.73 66.7907C152.73 66.7907 154.329 64.0891 154.279 63.889C154.229 63.6888 151.981 58.6858 151.981 58.6858" fill="#FFBEAE"/>
<path d="M173.863 39.0737C173.863 39.0737 175.861 41.3251 175.062 41.9755C174.313 42.5759 172.514 41.2751 172.514 41.2751L172.364 40.3245L172.864 39.2238" fill="#A35868"/>
<path d="M171.365 106.115C170.116 106.365 168.767 106.615 167.419 106.765C166.17 106.915 164.97 107.015 163.771 107.115C160.674 107.316 157.826 107.316 156.027 107.266L148.134 89.4046L147.234 84.9519L152.68 83.8012L161.723 81.9L166.969 80.7993L167.419 83.2008L168.118 87.2032L171.016 103.513C171.166 104.314 171.266 105.214 171.365 106.115Z" fill="#7E96BA"/>
<path d="M167.418 106.765C166.169 106.915 164.97 107.015 163.771 107.115L162.022 96.4089L163.771 88.2539L166.869 86.2527L167.418 106.765Z" fill="#6A80A0"/>
<path d="M170.516 116.121L163.721 142.237L162.123 148.991C161.323 148.991 158.725 148.591 157.876 148.291C157.277 148.091 157.726 146.89 157.376 146.69C156.777 146.29 156.877 145.639 156.877 145.639L157.177 141.687C157.177 141.537 157.476 132.831 157.726 125.377C157.926 119.723 158.076 114.77 158.076 114.77L158.126 112.169L157.876 111.568L155.978 107.266C156.777 107.266 157.726 107.316 158.825 107.266C161.273 107.266 164.321 107.116 167.369 106.765C168.718 106.615 170.066 106.415 171.316 106.115C171.615 109.467 171.365 112.869 170.516 116.121Z" fill="#FFBEAE"/>
<path d="M168.517 65.54C168.517 65.54 167.568 71.3936 167.418 73.8451C167.318 75.1459 167.118 78.8482 167.118 78.8482C158.225 78.7982 151.63 76.4968 149.432 75.6462C148.933 75.4461 148.633 75.296 148.633 75.296L151.181 66.6407L166.069 65.6901L168.517 65.54Z" fill="#FFD3CA"/>
<path d="M167.618 69.3424C167.618 69.3424 160.923 72.8946 151.78 68.7421L149.432 75.6463C148.933 75.4462 148.633 75.2961 148.633 75.2961L151.181 66.6408L166.069 65.6902L166.469 65.9403L167.618 69.3424Z" fill="#FFC9C0"/>
<path d="M186.604 37.9731C186.604 37.9731 185.105 41.5754 186.604 43.3765C188.102 45.1776 191 44.6272 191 44.5272C191 44.4271 191.05 42.4759 191.1 42.4759L190.051 39.6242" fill="#20466B"/>
<path d="M180.208 10.1061C179.309 8.5051 178.259 4.65274 178.759 4.25249C179.359 3.75219 180.158 6.00357 180.408 6.65397C180.158 5.80344 179.059 2.1512 179.608 1.90105C180.208 1.60087 181.557 6.20369 181.607 6.45384C181.557 6.20369 180.108 0.149975 181.007 -0.000117162C181.857 -0.100179 182.956 5.4032 183.056 6.00357C182.956 5.45323 182.156 0.900435 183.006 1.10056C183.905 1.30068 184.205 4.55268 184.505 5.80344C184.505 5.90351 184.754 6.15366 184.854 5.70338C185.004 5.05298 185.154 2.8016 185.853 2.95169C186.153 3.00172 186.253 3.95231 186.303 5.00295C186.403 6.20369 186.453 7.70461 186.103 9.05544C186.003 9.50572 185.804 9.95599 185.504 10.3062C185.004 10.9066 184.854 11.657 184.954 12.4075C185.404 15.5594 188.002 23.7144 188.601 25.3154C189.351 26.3661 201.441 40.925 201.441 40.925L190.95 47.1288C190.95 47.1288 189.85 45.5778 188.451 43.2264C188.401 43.1263 188.302 42.9762 188.252 42.8762C186.453 39.9244 182.856 33.7706 181.607 29.8182C179.458 24.3648 180.208 15.3593 180.608 12.1073C180.708 11.3569 180.558 10.6564 180.208 10.1061Z" fill="#F4A392"/>
<path d="M183.306 11.6069C184.105 10.156 185.005 6.75395 184.605 6.40373C184.055 5.95346 183.356 7.95468 183.156 8.55505C183.406 7.80459 184.355 4.5526 183.855 4.35247C183.356 4.10232 182.107 8.20484 182.057 8.40496C182.107 8.20484 183.356 2.80152 182.606 2.70146C181.857 2.6014 180.908 7.50441 180.808 8.00472C180.908 7.50441 181.607 3.50195 180.858 3.65204C180.058 3.80214 179.759 6.70392 179.509 7.80459C179.509 7.90465 179.259 8.10478 179.209 7.70453C179.059 7.15419 178.959 5.10293 178.36 5.25303C178.11 5.30306 178.01 6.10355 177.96 7.05413C177.86 8.15481 177.86 9.45561 178.16 10.6063C178.26 11.0066 178.41 11.4068 178.71 11.707C179.159 12.2073 179.309 12.9077 179.209 13.6082C178.809 16.4099 176.511 23.6143 176.012 25.0152C175.362 25.9657 165.72 39.2739 165.72 39.2739L173.014 43.8267L181.008 28.7174C182.906 23.9145 183.406 16.2098 183.056 13.2579C182.906 12.7076 183.056 12.1072 183.306 11.6069Z" fill="#FFD3CA"/>
<path d="M247.706 137.284C247.706 137.284 247.306 138.535 246.806 139.235C246.157 140.236 244.458 141.787 243.809 141.887L238.113 138.035L233.167 136.434L216.58 123.926C218.529 122.175 222.226 118.623 225.323 114.32L238.763 128.129L247.706 137.284Z" fill="#FFBEAE"/>
<path d="M247.706 137.284C247.706 137.284 247.306 138.535 246.806 139.235C246.157 140.236 243.109 142.687 242.41 142.837L233.117 136.434C234.516 134.933 238.413 130.08 238.763 128.128L247.706 137.284Z" fill="#F6A866"/>
<path d="M247.306 137.084C247.306 137.084 245.707 141.136 242.46 142.838C242.46 142.838 239.862 150.242 240.162 150.993C240.412 151.743 250.404 140.186 250.654 139.786C250.903 139.385 248.805 137.434 247.306 137.084Z" fill="#322C74"/>
<path d="M209.235 109.817C209.485 108.416 209.735 106.915 209.985 105.314C210.334 103.163 210.734 100.862 211.134 98.5102C211.583 95.7585 212.033 93.0569 212.433 90.5553C212.732 88.8543 212.982 87.2533 213.182 85.8525C213.332 85.0019 213.432 84.2515 213.532 83.6011L212.433 83.451L195.396 80.8994C195.396 80.8994 195.296 82.2002 195.196 84.3015C195.146 84.9019 195.096 85.6023 195.096 86.3528C194.597 94.958 193.647 111.318 193.647 115.621C193.647 117.372 193.248 121.074 193.647 125.427C196.345 125.677 201.941 125.927 207.387 125.427L208.086 116.571C208.086 116.571 208.586 113.82 209.235 109.817Z" fill="#322C74"/>
<path d="M209.386 97.6099C209.386 97.6099 207.187 108.867 206.238 113.92C206.088 114.67 205.988 115.421 205.938 116.171C205.838 117.972 205.639 121.575 205.689 124.176" stroke="#1B1A56" stroke-width="0.4865" stroke-miterlimit="10"/>
<path d="M207.437 125.427L206.138 144.388L205.338 156.146C205.338 156.146 203.64 157.096 202.091 157.196C200.892 157.246 199.743 156.796 199.193 156.346C199.193 156.346 196.795 151.393 196.096 144.839C195.396 138.385 194.097 130.53 193.598 125.427C196.346 125.677 201.941 125.977 207.437 125.427Z" fill="#FFBEAE"/>
<path d="M206.138 144.438L205.338 156.196C205.338 156.196 203.64 157.146 202.091 157.246C200.892 157.296 197.994 156.396 197.445 155.996C197.445 155.996 196.745 150.492 196.096 144.889C197.744 145.039 202.291 145.089 206.138 144.438Z" fill="#F6A866"/>
<path opacity="0.3" d="M211.134 98.5605C210.485 102.563 209.785 106.615 209.236 109.817L208.486 95.5587L208.236 91.7063C208.236 91.7063 209.186 93.2572 209.535 94.558C209.735 95.3585 210.435 96.9595 211.134 98.5605Z" fill="#242366"/>
<path d="M225.323 113.52L225.273 86.0026L225.223 82.5005L213.232 85.9026L207.687 87.4535L208.136 91.0557L209.985 105.314C209.985 105.314 211.334 112.569 212.783 118.473C213.332 120.824 214.831 122.875 216.879 124.176L218.128 124.977C221.076 123.976 226.372 119.723 227.621 116.671L225.323 113.52Z" fill="#322C74"/>
<path d="M219.977 84.0015C219.977 84.0015 220.476 103.413 221.126 109.817C221.775 116.221 224.923 119.123 224.923 119.123" stroke="#1B1A56" stroke-width="0.4865" stroke-miterlimit="10"/>
<path opacity="0.3" d="M225.273 86.0026C224.324 86.3529 222.675 87.0033 221.326 87.7537C220.077 88.4541 216.48 89.855 212.483 90.6055C211.084 90.8556 209.585 91.0557 208.186 91.0557C207.187 91.0557 206.188 91.0057 205.239 90.9056C200.193 90.1552 196.396 87.4035 195.146 86.4029C195.196 85.6524 195.246 85.002 195.246 84.3516C195.946 84.3516 196.695 84.3516 196.795 84.3516C196.945 84.4017 204.889 84.1515 205.139 84.1515C205.239 84.1515 208.536 83.8513 212.483 83.5011L213.582 83.6512C213.482 84.3016 213.382 85.0521 213.232 85.9026L225.223 82.5005L225.273 86.0026Z" fill="#242366"/>
<path d="M234.066 62.1881C232.167 63.639 229.22 64.5395 227.821 65.0398C227.321 65.24 226.972 65.29 226.972 65.29L223.274 59.6866L229.02 54.7835L228.071 50.3308C228.271 50.7811 231.468 55.1838 232.467 57.235C233.616 59.6866 234.066 62.1881 234.066 62.1881Z" fill="#F4A392"/>
<path d="M186.604 43.3764C187.403 43.9768 189.401 43.6266 190.251 43.1263C194.297 40.6247 194.497 34.521 194.098 31.8193L195.646 33.4203C200.842 38.6735 218.029 40.0744 219.827 41.1751C219.977 41.2751 220.127 41.4252 220.277 41.5753L222.625 59.7865C222.975 63.0385 223.824 67.8915 224.624 72.2441C225.673 77.7975 226.672 82.6505 226.672 82.6505C226.672 82.6505 226.222 82.9507 225.473 83.351C222.325 85.1521 213.482 89.7048 205.838 88.9044C196.396 87.9538 193.748 84.5017 193.748 84.5017L194.597 55.3838L186.604 43.3764Z" fill="#5599E8"/>
<path d="M224.523 72.2943C222.325 65.3401 220.676 58.2357 220.626 57.8855L222.524 59.7867C222.924 63.0887 223.724 67.9417 224.523 72.2943Z" fill="#498FC9"/>
<path d="M231.718 54.9836C229.67 51.6816 221.976 42.2258 220.027 41.3752L221.526 60.1868L223.525 62.3381C230.669 60.8372 231.718 54.9836 231.718 54.9836Z" fill="#5599E8"/>
<path d="M212.683 32.72C212.533 32.9702 212.383 33.2204 212.283 33.4705C211.883 34.221 211.334 35.4717 211.184 36.6725C211.184 36.6725 210.984 38.1734 211.134 40.0245C210.584 40.0746 209.885 40.0746 209.136 40.0746C206.538 39.9745 203.69 39.3241 203.69 39.3241L203.74 37.8232V37.523C202.641 37.1728 201.641 36.4723 200.942 35.2216C200.193 33.9708 200.193 32.72 200.442 31.6694C200.542 31.2692 200.642 30.9189 200.792 30.6188C200.992 30.1685 201.192 29.7182 201.342 29.2679C201.591 28.6175 201.841 27.9171 202.041 27.2167C203.49 21.9134 208.436 20.3124 211.883 22.7139C214.082 24.2649 214.881 28.7176 212.683 32.72Z" fill="#F4A392"/>
<path d="M214.731 29.8183C214.731 29.8183 213.981 31.9196 213.032 33.3705C212.083 34.8214 211.533 36.3723 211.184 36.3223C210.834 36.2723 211.583 34.0709 212.183 33.0703C212.782 32.0697 213.432 30.869 213.232 30.4187C213.032 29.9684 212.183 29.368 211.733 29.7183C211.283 30.1185 210.634 31.1691 210.334 31.0691C210.034 30.969 210.584 28.8677 210.434 28.4175C210.284 27.9672 209.835 28.2674 209.385 27.9672C208.935 27.667 208.685 26.4663 209.485 26.116C210.284 25.7658 212.433 26.3662 212.433 26.3662C212.433 26.3662 214.131 27.667 214.181 27.8671C214.231 28.1173 214.731 29.8183 214.731 29.8183Z" fill="#873A20"/>
<path d="M203.69 37.523C203.69 37.523 206.238 37.9233 207.836 37.0728C207.836 37.0728 205.838 39.124 203.64 39.3241L203.69 37.523Z" fill="#F29788"/>
<path d="M201.641 32.2197C201.641 32.2197 203.24 33.4205 205.239 33.7206C205.239 33.7206 204.589 35.6718 202.641 34.8713C200.692 34.1209 201.641 32.2197 201.641 32.2197Z" fill="white"/>
<path d="M207.337 27.6669C207.737 27.767 208.486 28.1672 208.636 28.7676C208.836 29.368 206.938 28.0672 206.838 27.8671C206.738 27.6669 206.988 27.5669 207.337 27.6669Z" fill="#873A20"/>
<path d="M202.99 26.0659C203.44 26.0659 204.189 26.216 204.539 26.7663C204.889 27.3167 202.691 26.5162 202.591 26.3661C202.441 26.216 202.691 26.0659 202.99 26.0659Z" fill="#20466B"/>
<path d="M206.79 33.9444C207.413 34.1676 208.115 33.8002 208.356 33.1237C208.597 32.4473 208.288 31.718 207.664 31.4947C207.041 31.2715 206.339 31.639 206.098 32.3154C205.856 32.9919 206.166 33.7212 206.79 33.9444Z" fill="#F79484"/>
<path d="M202.091 30.9689C201.842 31.6693 201.142 32.0195 200.543 31.8194C200.493 31.8194 200.443 31.7694 200.343 31.7193C200.443 31.3191 200.543 30.9689 200.693 30.6187C200.892 30.1684 201.092 29.7181 201.242 29.2678C201.292 29.2678 201.342 29.2678 201.392 29.3179C202.041 29.568 202.341 30.2684 202.091 30.9689Z" fill="#F79484"/>
<path d="M203.34 30.7188C203.34 30.7188 202.94 31.0189 202.891 31.3191C202.841 31.6193 203.19 32.0195 203.54 32.1696C203.54 32.1696 203.44 32.1196 203.34 32.0195C203.04 31.7194 202.99 31.2691 203.24 30.9189C203.24 30.8188 203.29 30.7688 203.34 30.7188Z" fill="#E58373"/>
<path d="M212.133 29.368C212.683 29.1179 214.231 29.1679 213.782 31.3693C213.382 33.3205 211.833 33.9709 210.884 33.1704C209.985 32.4199 211.084 29.8683 212.133 29.368Z" fill="#F4A392"/>
<path d="M212.034 30.719C211.884 31.0192 212.184 31.4694 211.984 31.7196C211.784 31.9697 211.534 31.8697 211.434 32.1198C211.334 32.37 211.734 32.5701 212.334 32.2199C212.783 31.9697 212.833 31.3694 212.833 30.9691C212.783 30.4188 212.234 30.2187 212.034 30.719Z" fill="#E58373"/>
<path d="M164.92 39.6243L163.222 40.9751C163.222 40.9751 164.071 41.8256 164.721 41.3753C165.42 40.9751 164.92 39.6243 164.92 39.6243Z" fill="white"/>
<path d="M164.721 28.5674C164.721 28.5674 164.871 30.9689 165.87 32.77C166.869 34.5711 168.318 37.9231 167.668 39.4741C167.019 41.0751 163.522 42.7761 158.775 39.7242C156.077 38.0232 155.328 30.9188 156.527 28.5674C157.726 26.216 164.071 25.5155 164.721 28.5674Z" fill="#FFD3CA"/>
<path d="M165.62 32.3696C165.62 32.3696 167.069 34.0206 167.518 34.5209C167.968 35.0213 166.569 35.8217 166.569 35.8217L165.42 34.5209" fill="#FFD3CA"/>
<path d="M164.281 37.2213C164.843 36.99 165.068 36.2432 164.785 35.5532C164.501 34.8633 163.816 34.4915 163.255 34.7228C162.693 34.9541 162.468 35.7009 162.752 36.3908C163.035 37.0808 163.72 37.4526 164.281 37.2213Z" fill="#FFA3A5"/>
<path d="M165.021 32.6199C165.021 32.6199 164.521 32.0196 163.772 32.4198C163.122 32.77 163.222 33.5705 163.322 33.6706C163.372 33.7706 163.272 33.0702 163.922 32.72C164.371 32.4698 164.721 32.8201 164.821 32.9201C165.071 33.0202 165.171 32.77 165.021 32.6199Z" fill="#20466B"/>
<path d="M164.52 31.4191C164.52 31.4191 163.871 31.219 163.271 31.6692C162.722 32.0695 162.372 32.97 162.372 32.97C162.372 32.97 162.972 32.1195 163.721 31.7193C164.171 31.4191 164.52 31.4191 164.52 31.4191Z" fill="#20466B"/>
<path d="M205.239 155.695C205.239 155.695 201.042 157.246 197.495 155.945C197.495 155.945 190.051 159.097 189.701 159.798C189.351 160.498 204.989 160.148 205.489 160.098C205.938 160.048 205.988 157.096 205.239 155.695Z" fill="#322C74"/>
<path d="M224.524 65.6402C222.675 64.4895 220.527 62.088 218.678 59.5865C216.83 57.0849 215.331 54.5834 214.632 53.4327C214.032 52.4321 213.233 52.5321 212.533 52.0819C211.334 51.3314 210.435 50.2307 210.585 49.7304C210.735 49.1801 211.134 49.2301 211.134 49.2301C211.134 49.2301 211.084 48.7298 211.384 48.4797C211.684 48.2295 211.834 48.3296 211.834 48.3296C211.834 48.3296 211.884 47.9293 212.133 47.7292C212.483 47.429 212.883 47.6291 212.883 47.6291C212.883 47.5791 212.983 46.9787 213.432 46.8286C213.882 46.6785 214.432 47.2289 214.482 47.2789C214.382 46.8787 214.382 46.2783 214.731 46.2283C215.081 46.2283 216.48 47.7292 216.53 48.6297C216.53 49.2301 216.68 49.6804 217.03 50.2307C217.18 50.4309 217.429 50.731 217.629 50.9312C217.829 51.1313 218.029 51.2814 218.029 51.2814C219.378 52.232 221.226 53.5828 222.975 54.8836C225.673 56.8848 228.071 58.6859 228.071 58.6859L230.019 59.8366L232.468 57.2851C232.468 57.2851 235.615 64.1393 233.717 66.1405C231.518 68.4419 228.571 68.1917 224.524 65.6402Z" fill="#F4A392"/>
<path d="M214.831 48.3297C214.631 47.8794 214.432 47.229 214.432 47.229L214.532 47.3291C214.532 47.3291 214.631 47.6293 214.981 48.2296C215.181 48.5298 215.581 49.0301 215.431 49.1302C215.181 49.1802 215.031 48.7299 214.831 48.3297Z" fill="#F29788"/>
<path d="M214.731 29.8182C214.731 29.8182 208.236 25.1653 203.04 24.3648C203.04 24.3648 205.488 18.7113 211.034 20.8126C217.429 23.2141 214.731 29.8182 214.731 29.8182Z" fill="#20466B"/>
<path d="M211.733 27.917C211.733 27.917 207.387 27.8669 203.79 26.9664C200.242 26.0658 198.694 23.5143 203.19 24.0146C207.986 24.5649 211.733 27.917 211.733 27.917Z" fill="#5599E8"/>
<path d="M205.988 29.4681C205.988 29.4681 206.488 28.8677 207.237 29.268C207.887 29.6182 207.787 30.4187 207.687 30.5187C207.637 30.6188 207.737 29.9184 207.088 29.5681C206.638 29.318 206.288 29.6682 206.188 29.7683C205.938 29.8683 205.839 29.6182 205.988 29.4681Z" fill="#873A20"/>
<path d="M202.341 27.6668C202.341 27.6668 202.841 27.0664 203.59 27.4667C204.239 27.8169 204.14 28.6174 204.04 28.7175C203.99 28.8175 204.09 28.1171 203.44 27.7669C202.99 27.5167 202.641 27.8669 202.541 27.967C202.291 28.1171 202.191 27.8669 202.341 27.6668Z" fill="#873A20"/>
<path d="M205.489 40.0745C205.489 40.0745 205.239 45.9781 205.489 53.1825" stroke="#4086CC" stroke-width="0.4865" stroke-miterlimit="10" stroke-linecap="round" stroke-linejoin="round"/>
<path d="M206.487 42.3259C206.681 42.3259 206.837 42.1691 206.837 41.9757C206.837 41.7823 206.681 41.6255 206.487 41.6255C206.294 41.6255 206.138 41.7823 206.138 41.9757C206.138 42.1691 206.294 42.3259 206.487 42.3259Z" fill="#4086CC"/>
<path d="M206.487 46.4783C206.681 46.4783 206.837 46.3215 206.837 46.128C206.837 45.9346 206.681 45.7778 206.487 45.7778C206.294 45.7778 206.138 45.9346 206.138 46.128C206.138 46.3215 206.294 46.4783 206.487 46.4783Z" fill="#4086CC"/>
<path d="M206.487 50.731C206.681 50.731 206.837 50.5742 206.837 50.3807C206.837 50.1873 206.681 50.0305 206.487 50.0305C206.294 50.0305 206.138 50.1873 206.138 50.3807C206.138 50.5742 206.294 50.731 206.487 50.731Z" fill="#4086CC"/>
<path d="M168.917 34.6711C168.917 34.6711 173.313 41.6254 175.062 41.9256C175.062 41.9256 169.516 50.2307 166.069 53.1325C162.472 56.1343 155.028 44.8774 159.025 43.2764C163.571 41.5253 168.917 34.6711 168.917 34.6711Z" fill="#CA7988"/>
<path d="M168.218 69.1422C168.218 69.1422 159.225 72.2441 150.682 66.9909L156.127 40.6248L170.016 43.5265L168.917 46.2282C168.917 46.2282 170.116 50.781 171.116 53.983C172.115 57.2349 169.217 62.0379 168.218 69.1422Z" fill="#CA7988"/>
<path d="M161.673 38.9738C161.273 38.5235 160.873 37.623 160.673 37.0726C160.174 35.7718 159.774 34.1709 160.523 33.0202C161.273 31.8694 162.772 31.5693 163.771 30.7187C164.67 29.9683 165.12 28.8176 165.07 27.6669C165.02 27.1666 164.92 26.7163 164.67 26.316C164.271 25.4655 163.421 24.9652 162.522 24.8151C157.526 23.9146 152.829 25.8157 150.381 28.3173C148.533 30.2184 147.983 33.7206 148.783 36.2722C148.933 36.7725 149.182 37.2728 149.232 37.7731C149.582 39.6742 148.333 41.4253 147.034 42.8262C145.735 44.227 144.186 45.5278 143.637 47.3289C143.087 49.1801 143.737 51.3314 145.235 52.5321C145.635 52.8323 146.085 53.1325 146.484 53.4327C147.284 54.1831 147.684 55.2838 147.584 56.3845C147.184 62.6383 155.178 59.6365 157.176 58.1856C163.271 53.7329 166.968 44.6273 161.673 38.9738Z" fill="#20466B"/>
<path d="M150.582 104.164L152.73 113.92L133.895 128.279C133.895 128.279 133.895 128.279 133.895 128.329L130.448 130.48C130.448 130.48 130.348 130.88 130.448 131.581C130.498 131.981 130.598 132.531 130.847 133.132C131.197 133.982 132.146 135.333 132.646 135.933L137.442 133.632L161.673 122.175C163.622 121.224 164.971 119.323 165.121 117.172L166.12 105.214C158.825 105.865 153.33 104.864 150.582 104.164Z" fill="#FFD3CA"/>
<path d="M167.119 78.8483L166.12 105.265C158.825 105.915 153.379 104.864 150.632 104.214L147.984 92.1065L147.884 91.6562L147.184 88.4042L146.535 85.5525C145.935 82.8508 146.335 80.4993 146.935 78.7483C147.634 76.597 148.683 75.3462 148.683 75.3462C155.478 78.1479 167.119 78.8483 167.119 78.8483Z" fill="#7E96BA"/>
<path d="M133.795 142.287C133.145 142.988 127.599 132.331 127.45 131.981C127.3 131.631 129.248 130.48 130.447 130.43C130.447 130.43 131.047 133.782 133.295 135.633C133.295 135.633 134.094 141.937 133.795 142.287Z" fill="#322C74"/>
<path d="M164.171 155.195C164.92 155.645 162.173 148.741 162.173 148.741C158.825 147.941 156.927 144.939 156.927 144.939C155.778 145.389 154.628 147.19 154.878 147.49C154.878 147.49 161.523 153.594 164.171 155.195Z" fill="#322C74"/>
<path d="M160.174 79.5986C160.174 79.5986 160.474 94.4077 160.174 104.964" stroke="#6A80A0" stroke-width="0.5085" stroke-miterlimit="10" stroke-linecap="round"/>
<path d="M163.221 79.8489C163.221 79.8489 163.621 86.4529 160.224 88.4542" stroke="#6A80A0" stroke-width="0.5085" stroke-miterlimit="10" stroke-linecap="round"/>
<path d="M152.081 80.9494C152.081 80.9494 151.931 88.2539 150.682 89.8549C149.982 90.7054 148.833 91.5559 147.934 92.1062L147.834 91.656L147.135 88.404L146.485 85.5522C145.886 82.8506 146.285 80.4991 146.885 78.748C147.634 79.3984 149.133 80.349 152.081 80.9494Z" fill="#8DA5C6"/>
</g>
<defs>
<clipPath id="clip0">
<rect width="255" height="163" fill="white"/>
</clipPath>
</defs>
</svg>
