<svg width="1163" height="423" viewBox="0 0 1163 423" fill="none" xmlns="http://www.w3.org/2000/svg">
<g clip-path="url(#clip0)">
<path d="M649.498 128.104H608.911V221.905C608.911 246.047 598.98 265.226 569.853 265.226C541.012 265.513 532.704 245.76 532.704 220.664V128.104H492.022V230.97C492.022 260.646 502.527 303.109 558.393 303.396C589.048 303.682 604.232 288.796 611.394 275.532V298.147H649.498V128.104ZM665.637 298.147H706.224V204.347C706.224 180.491 716.155 161.311 744.996 161.025C773.55 161.025 781.858 180.491 781.858 205.969V298.147H822.444V195.663C822.444 165.605 811.94 123.237 756.455 122.856C726.087 122.569 710.903 137.36 703.454 150.719C703.741 142.703 703.741 135.547 703.741 128.104H665.637V298.147V298.147ZM838.011 298.147H878.597V128.104H838.011V298.147ZM838.011 105.202H878.597V68.9416H838.011V105.202ZM921.094 298.147H961.68V159.403H990.807L978.774 128.104H961.68V68.9416H921.094V128.104H892.922V159.403H921.094V298.147ZM1030.06 357.596H1073.41L1162.99 128.104H1119.63L1078.76 241.18L1037.22 128.104H993.863L1058.04 291.659L1030.06 357.596ZM269.417 211.599L343.523 83.7321L379.335 211.599L343.523 339.466L269.417 211.599ZM233.318 232.306L307.425 360.172L178.312 327.156L85.0104 232.306H233.318V232.306ZM307.425 62.9299L233.318 190.797H85.0104L178.312 95.9463L307.425 62.9299ZM413.236 168.086L367.97 0.0462984L199.226 45.0859L174.205 88.9804L123.496 88.5986L-0.078125 211.599L123.496 334.599L174.205 334.217L199.226 378.112L367.97 423.151L413.236 255.112L387.547 211.599L413.236 168.086" fill="black"/>
</g>
<defs>
<clipPath id="clip0">
<rect width="1163" height="423" fill="white"/>
</clipPath>
</defs>
</svg>
