<svg width="27" height="28" viewBox="0 0 27 28" fill="none" xmlns="http://www.w3.org/2000/svg">
<path d="M10.1788 7.4759L16.7996 1L17.8529 10.0362L25.9784 14.253L17.7024 18.1687L16.1977 27.2048L10.0283 20.5783L1 21.9337L5.3637 13.9518L1.30094 5.66868L10.1788 7.4759Z" stroke="#A1C7FF" stroke-miterlimit="10" stroke-linecap="round" stroke-linejoin="round"/>
</svg>
